module github.com/ClusterLabs/ha_cluster_exporter

go 1.23

require (
	github.com/alecthomas/kingpin/v2 v2.4.0
	github.com/go-kit/log v0.2.1
	github.com/golang/mock v1.6.0
	github.com/pkg/errors v0.9.1
	github.com/prometheus/client_golang v1.20.5
	github.com/prometheus/client_model v0.6.1
	github.com/prometheus/common v0.59.1
	github.com/prometheus/exporter-toolkit v0.10.0
	github.com/spf13/viper v1.19.0
	github.com/stretchr/testify v1.10.0
)

require (
	github.com/alecthomas/units v0.0.0-20211218093645-b94a6e3cc137 // indirect
	github.com/beorn7/perks v1.0.1 // indirect
	github.com/cespare/xxhash/v2 v2.3.0 // indirect
	github.com/coreos/go-systemd/v22 v22.5.0 // indirect
	github.com/davecgh/go-spew v1.1.2-0.20180830191138-d8f796af33cc // indirect
	github.com/fsnotify/fsnotify v1.7.0 // indirect
	github.com/go-logfmt/logfmt v0.5.1 // indirect
	github.com/hashicorp/hcl v1.0.0 // indirect
	github.com/jpillora/backoff v1.0.0 // indirect
	github.com/klauspost/compress v1.17.9 // indirect
	github.com/kylelemons/godebug v1.1.0 // indirect
	github.com/magiconair/properties v1.8.7 // indirect
	github.com/mitchellh/mapstructure v1.5.0 // indirect
	github.com/munnerz/goautoneg v0.0.0-20191010083416-a7dc8b61c822 // indirect
	github.com/mwitkow/go-conntrack v0.0.0-20190716064945-2f068394615f // indirect
	github.com/pelletier/go-toml/v2 v2.2.2 // indirect
	github.com/pmezard/go-difflib v1.0.1-0.20181226105442-5d4384ee4fb2 // indirect
	github.com/prometheus/procfs v0.15.1 // indirect
	github.com/sagikazarmark/locafero v0.4.0 // indirect
	github.com/sagikazarmark/slog-shim v0.1.0 // indirect
	github.com/sourcegraph/conc v0.3.0 // indirect
	github.com/spf13/afero v1.11.0 // indirect
	github.com/spf13/cast v1.6.0 // indirect
	github.com/spf13/pflag v1.0.5 // indirect
	github.com/subosito/gotenv v1.6.0 // indirect
	github.com/xhit/go-str2duration/v2 v2.1.0 // indirect
	go.uber.org/atomic v1.9.0 // indirect
	go.uber.org/multierr v1.9.0 // indirect
	golang.org/x/crypto v0.31.0 // indirect
	golang.org/x/exp v0.0.0-20230905200255-921286631fa9 // indirect
	golang.org/x/net v0.28.0 // indirect
	golang.org/x/oauth2 v0.22.0 // indirect
	golang.org/x/sync v0.10.0 // indirect
	golang.org/x/sys v0.28.0 // indirect
	golang.org/x/text v0.21.0 // indirect
	google.golang.org/protobuf v1.34.2 // indirect
	gopkg.in/ini.v1 v1.67.0 // indirect
	gopkg.in/yaml.v2 v2.4.0 // indirect
	gopkg.in/yaml.v3 v3.0.1 // indirect
)
